moeda,compra,venda
AFN,"0,05862","0,05878"
ETB,"0,1363","0,1389"
THB,"0,1432","0,1433"
PAB,"4,4877","4,4883"
VES,"0,0000607","0,0000608"
BOB,"0,6429","0,6571"
GHS,"0,8189","0,8343"
CRC,"0,007805","0,007884"
SVC,"0,5123","0,5130"
NIO,"0,1320","0,1341"
DKK,"0,6713","0,6715"
ISK,"0,03525","0,03531"
NOK,"0,4867","0,4871"
SEK,"0,4767","0,4769"
CZK,"0,1979","0,1980"
GMD,"0,08714","0,08801"
DZD,"0,03741","0,03761"
KWD,"14,6465","14,6868"
BHD,"11,9037","11,9275"
IQD,"0,00374","0,003779"
JOD,"6,3207","6,3394"
LYD,"3,1964","3,2128"
MKD,"0,08109","0,08171"
RSD,"0,04262","0,04275"
SDG,"0,08122","0,08161"
TND,"1,5901","1,5911"
SSP,"0,02788","0,02829"
SDR,"6,1854","6,1862"
MAD,"0,4707","0,4710"
AED,"1,2216","1,2220"
STD,"0,000213","0,0002137"
AUD,"2,9722","2,9730"
BSD,"4,4877","4,4883"
BMD,"4,4877","4,4883"
CAD,"3,3643","3,3661"
GYD,"0,02123","0,02165"
NAD,"0,2881","0,2882"
BBD,"2,1997","2,2463"
BZD,"2,2072","2,2462"
BND,"3,2400","3,2416"
KYD,"5,3745","5,4404"
SGD,"3,2400","3,2416"
CLF,"158,7973","158,8185"
FJD,"1,9791","2,0556"
HKD,"0,5776","0,5777"
TTD,"0,6574","0,6702"
XCD,"1,6499","1,6623"
USD,"4,4877","4,4883"
JMD,"0,03278","0,03335"
LRD,"0,02253","0,02281"
NZD,"2,8335","2,8357"
SBD,"0,5358","0,5673"
SRD,"0,5968","0,6041"
VND,"0,0001933","0,0001933"
AMD,"0,00933","0,0094"
CVE,"0,04429","0,04559"
ANG,"2,5036","2,5109"
AWG,"2,4390","2,5215"
HUF,"0,01495","0,01496"
CDF,"0,00264","0,002656"
BIF,"0,002368","0,00239"
KMF,"0,0101","0,01014"
XAF,"0,007297","0,007588"
XOF,"0,007523","0,007614"
XPF,"0,04195","0,04211"
DJF,"0,02513","0,02529"
GNF,"0,0004626","0,0004793"
MGA,"0,001197","0,00123"
RWF,"0,004789","0,004878"
CHF,"4,6962","4,6973"
HTG,"0,04717","0,0506"
PYG,"0,0006888","0,0006901"
UAH,"0,1795","0,1796"
JPY,"0,04172","0,04174"
GEL,"1,5999","1,6203"
ALL,"0,0407","0,04098"
HNL,"0,1820","0,1821"
SLL,"0,0004579","0,0004648"
MDL,"0,2579","0,2595"
RON,"1,0424","1,0438"
BGN,"2,5643","2,5658"
GIP,"5,7398","5,7450"
EGP,"0,2858","0,2877"
GBP,"5,7510","5,7536"
FKP,"5,7398","5,7450"
LBP,"0,002955","0,002981"
SHP,"5,7420","5,7473"
SYP,"0,01025","0,01032"
SZL,"0,2935","0,2937"
LSL,"0,2934","0,2938"
TMT,"1,2822","1,2860"
MZN,"0,0680","0,06842"
ERN,"0,2962","0,2992"
NGN,"0,01462","0,01467"
AOA,"0,009155","0,009218"
TWD,"0,1506","0,1508"
TRY,"0,7388","0,7396"
PEN,"1,3042","1,3066"
BTN,"0,06122","0,06124"
MRO,"0,0125","0,01261"
MRU,"0,1190","0,1197"
TOP,"1,8718","2,0000"
MOP,"0,5594","0,5602"
ARS,"0,07203","0,07204"
CLP,"0,005576","0,005578"
COP,"0,001306","0,001308"
CUP,"4,4877","4,4883"
DOP,"0,08376","0,08396"
PHP,"0,08822","0,08827"
MXN,"0,2335","0,2335"
UYU,"0,1144","0,1145"
BWP,"0,4043","0,4071"
MWK,"0,00607","0,006154"
ZMW,"0,2914","0,2930"
GTQ,"0,5836","0,5852"
MMK,"0,003134","0,00315"
PGK,"1,2835","1,3173"
HRK,"0,6698","0,6706"
LAK,"0,0005027","0,0005064"
ZAR,"0,2936","0,2937"
CNY,"0,6442","0,6451"
CNH,"0,6467","0,6469"
QAR,"1,2322","1,2329"
OMR,"11,6564","11,6610"
YER,"0,01787","0,01802"
IRR,"0,0001069","0,0001069"
SAR,"1,1960","1,1963"
KHR,"0,001092","0,00111"
MYR,"1,0698","1,0712"
RUB,"0,0686","0,06866"
BYN,"2,0072","2,0128"
TJS,"0,4633","0,4639"
MUR,"0,1194","0,1203"
NPR,"0,03828","0,0383"
SCR,"0,3400","0,3401"
LKR,"0,02463","0,02466"
INR,"0,06123","0,06126"
IDR,"0,0003141","0,0003144"
MVR,"0,2895","0,2911"
PKR,"0,02909","0,02921"
ILS,"1,3035","1,3044"
KGS,"0,0642","0,06426"
UZS,"0,0004715","0,000472"
BDT,"0,0528","0,05302"
WST,"1,6088","1,7078"
KZT,"0,01179","0,0118"
MNT,"0,001617","0,001636"
VUV,"0,03709","0,03836"
KRW,"0,003776","0,003783"
TZS,"0,001943","0,001951"
KES,"0,04391","0,0440"
UGX,"0,001211","0,001215"
SOS,"0,007711","0,007806"
PLN,"1,1679","1,1682"
EUR,"5,0159","5,0184"
XAU,"235,6985","235,7300"
